{
	"action":"UPDATE",
	"class":"shopping",
	"room":0,
	"date":"09 13 2016 20:32:53",
	"data":
[ { "enabled" : "1",
    "id" : "1",
    "img_uri" : "camara_digital_canon_ixus_145_black_hd_ad_l2.jpg",
    "item_description" : "16MP 8x optical zoom DIGIC 4+ Image Stabilizer (IS) System 720p HD recording<br>2.7-inch type monitor <br>Autofocus: Continuous, Servo AF <br>Shutter Speed 1 - 1/2000sec.<br>Storage: SD card (sold separately)",
    "item_name" : "Canon IXUS 145 16MP Digital Camera",
    "shopping_category_id" : "6",
    "unit_price" : "199.99"
  },
  { "enabled" : "1",
    "id" : "2",
    "img_uri" : "lacoste-5617-573581-5-zoom.jpg",
    "item_description" : "Fashionable tote bag made of water-resistant <br> PVC Chic and clean-lined design  <br> Handle Drop: 9.5 inches <br>Durable, everyday functionality <br>PVC Double shouldered straps with signature logo",
    "item_name" : "Lacoste Vertical Tote Bag Large",
    "shopping_category_id" : "6",
    "unit_price" : "94.99"
  },
  { "enabled" : "1",
    "id" : "3",
    "img_uri" : "empower-6728-278002-1-zoom.jpg",
    "item_description" : "Materials: Washable Fabric<br>Neoprene Open palm keeps hands drier<br>Secure fit<br>Great for use in shadow boxing, upper body toning, and cardio<br>Weight (combined): 2lbs.",
    "item_name" : "Empower Weighted Fitness Gloves Comfort Fit",
    "shopping_category_id" : "6",
    "unit_price" : "35.99"
  },
  { "enabled" : "1",
    "id" : "4",
    "img_uri" : "mary-kay-0751-303802-1-zoom.jpg",
    "item_description" : "CC Cream With SPF15<br>Lightweight coverage for a natural Oil-free, fragrance-free, non-comedogenic, dermatologist-tested<br>Flawless-looking complexion<br>Easy out-the-door option without that made-up look<br>Suitable for all skin types<br>",
    "item_name" : "Mary Kay CC Cream Sunscreen Broad Spectrum SPF 15 29ml",
    "shopping_category_id" : "6",
    "unit_price" : "20"
  },
  { "enabled" : "1",
    "id" : "5",
    "img_uri" : "mary-kay-0939-903802-1-zoom.jpg",
    "item_description" : "Lipstick Color: Rosette (Satin)<br>Intensely moisturizing<br>Helps lips look fuller<br>Sleek and ultra stylish<br>Apply on your Lips",
    "item_name" : "Mary Kay True Dimensions TM Lipstick 29ml",
    "shopping_category_id" : "6",
    "unit_price" : "25"
  },
  { "enabled" : "1",
    "id" : "6",
    "img_uri" : "underground-3988-895781-1-zoom.jpg",
    "item_description" : "Mineral Blush Formulated with Argan oil, Allantoin, & Vitamin E<br>Promotes ultra moisturization and rich in protein that is good for elasticity of the skin<br>Helps the skin to get rid of blemishes<br>Protects and repairs skin caused by free radicals",
    "item_name" : "Underground Mineral Blush 8g",
    "shopping_category_id" : "6",
    "unit_price" : "12"
  },
  { "enabled" : "1",
    "id" : "7",
    "img_uri" : "generic-3714-197512-1-zoom.jpg",
    "item_description" : "Make up Organizer Material: Fiber, Wood, Synthetic Leather<br>12-Hole Brush Pouch<br>Durable<br>Stylish way to stash your beauty essentials",
    "item_name" : "Make up Brush Kit",
    "shopping_category_id" : "6",
    "unit_price" : "18"
  },
  { "enabled" : "1",
    "id" : "8",
    "img_uri" : "cover-up-1087-62507-1-zoom.jpg",
    "item_description" : "Instant non-dye hair coloring<br>Washable Stick applicator<br>Instant touch-up anytime, anywhere<br>No water needed<br>No ammonia<br>No hydrogen peroxide",
    "item_name" : "Cover Up Gray Hair Stick Applicator for Men",
    "shopping_category_id" : "6",
    "unit_price" : "19"
  },
  { "enabled" : "1",
    "id" : "9",
    "img_uri" : "pritech-0999-71479-1-zoom.jpg",
    "item_description" : "All in one manicure / pedicure system<br>Ideal for natural / acrylic nails<br>Shapes buffs and shines nails",
    "item_name" : "Pritech Manicure Pedicure System",
     "shopping_category_id" : "6",
    "unit_price" : "29.99"
  },
  { "enabled" : "1",
    "id" : "10",
    "img_uri" : "samsung-9236-35639-1-zoom.jpg",
    "item_description" : "16GB storage capacity<br>Class 10 Data<br>Transfer Speed: Up to 48MB/s (UHS-I Interface)<br>Great performance in high-end smart phones and tablet PCs.",
    "item_name" : "Samsung Plus MB-MPAGB 16GB MicroSDHC Card",
     "shopping_category_id" : "6",
    "unit_price" : "25"
  },
  { "enabled" : "1",
    "id" : "11",
    "img_uri" : "generic-6521-864301-1-zoom.jpg",
    "item_description" : "5.0 Megapixel<br>1.3 Megapixel CMOS 2.0 <br>Touch panel 720p (1280x720)<br>23-3fps<br>Lithium Battry 440mAh<br>Power Life: 90 Minutes<br>Memory: Support up to 32GB Micro SD",
    "item_name" : "HD Video Camcorder DV123",
    "shopping_category_id" : "6",
    "unit_price" : "59.99"
  },
  { "enabled" : "1",
    "id" : "12",
    "img_uri" : "sennheiser-4399-11276-1-zoom.jpg",
    "item_description" : "Type: In-ear earphones<br>Impedance: 32 Ω Frequency Response (Hz): 20 - 20000 Hz<br>Sensitivity/Sound Pressure Level: 108 dB<br>Input: 3.5 mm jack<br>Cable length: 1.2m",
    "item_name" : "Sennheiser Dynamic Mini Headphones PX 90",
   "shopping_category_id" : "6",
    "unit_price" : "27"
  },
  { "enabled" : "1",
    "id" : "13",
    "img_uri" : "rollei-4299-750231-2-zoom.jpg",
    "item_description" : "Image resolution: 12MP<br>720p Recording (30 fps)<br>10M Waterproof<br>1M Shockproof<br>170-degree fisheye function<br>Up to 32GB microSD (sold separately)<br>Lithium ion battery 800 mAh (2 hrs)",
    "item_name" : "Rollei Bullet HD Video Action Camera 12MP",
  "shopping_category_id" : "6",
    "unit_price" : "249.99"
  },
  { "enabled" : "1",
    "id" : "14",
    "img_uri" : "juicy-couture-0839-36247-1-zoom.jpg",
    "item_description" : "Eau de Parfum<br>White floral and sweet accords<br>Fragrance for Women<br>Top notes: Grapefruit, African orange flower and mandarin orange<br>Heart notes: Plum, honeysuckle and jasmine Base notes: Sandalwood, amber and vanilla",
    "item_name" : "Juicy Couture Eau de Parfum for Women 50ml",
    "shopping_category_id" : "6",
    "unit_price" : "200"
  },
  { "enabled" : "1",
    "id" : "15",
    "img_uri" : "sunpak-2400-61947-1-zoom.jpg",
    "item_description" : "Flash unit Illumination capacity: 20 (Guide Number ISO100 - m)<br>Flash Control Mode: (Canon) E-TTLII, (Nikon) i-TTL Auto<br>Effective Range(Focal Length at 35mm):TTL Auto 1.0~10m",
    "item_name" : "Sunpak RD2000 Ultra Compact Portable Shoe Mount Flash for Canon",
    "shopping_category_id" : "6",
    "unit_price" : "250"
  },
  { "enabled" : "1",
    "id" : "16",
    "img_uri" : "free-people-4166-131921-1-zoom.jpg",
    "item_description" : "Sleeveless sheer lace dress crafted with a square neckline and an Empire waistline<br>This item runs significantly larger, take two sizes smaller than normal.",
    "item_name" : "Free People Sleeveless Midi Dress",
  "shopping_category_id" : "7",
    "unit_price" : "172"
  },
  { "enabled" : "1",
    "id" : "17",
    "img_uri" : "free-people-4107-421921-1-zoom.jpg",
    "item_description" : "Sleeveless tunic in a plaid featuring a asymmetrical body knotted at the side<br>Designed with a U neckline and dropped ringer armholes, in a semi-sheer fabric<br>This item runs significantly larger, take two sizes smaller than normal",
    "item_name" : "Free People Sleeveless Striped Top",
   "shopping_category_id" : "7",
    "unit_price" : "148"
  },
  { "enabled" : "1",
    "id" : "18",
    "img_uri" : "free-people-4210-248581-1-zoom.jpg",
    "item_description" : "Front button closure textured top featuring a standing collar, high-low hemline, and decorative lace cut-out detail<br>Button closure on cuffs<br>This item runs significantly larger, take two sizes smaller than normal.",
    "item_name" : "Free People Long Sleeves Everyday Shirt",
    "shopping_category_id" : "7",
    "unit_price" : "152.5"
  },
  { "enabled" : "1",
    "id" : "19",
    "img_uri" : "otto-8987-423291-1-zoom.jpg",
    "item_description" : "Wedge sandals with gold metal accent<br>Material: Synthetic leather<br>Round, open X-strap toe with cut-out detail<br>3.5\" wooden heel<br>Ankle strap with buckle fastening",
    "item_name" : "Otto Wedge Sandals 28900263",
   "shopping_category_id" : "7",
    "unit_price" : "79"
  },
  { "enabled" : "1",
    "id" : "20",
    "img_uri" : "longchamp-6569-590022-1-zoom.jpg",
    "item_description" : "Material: Synthetic Leather 1 inside slip pocket<br>Double shouldered straps Fashionable tote bag<br>Comes with care card.",
    "item_name" : "Longchamp Victorie Planetes LLH Shoulder Tote Bag (Blue)",
    "shopping_category_id" : "7",
    "unit_price" : "128.5"
  },
  { "enabled" : "1",
    "id" : "21",
    "img_uri" : "glamorous-3899-420441-1-zoom.jpg",
    "item_description" : "Long sleeved<br>Scattered Pink Floral print boyfriend fit shirt, that features a button-through front, pointed collar, buttoned cuffs and a single pocket<br>Fits true to size, take your normal size<br>Refer to size guide for fit.<br>Model is 176cm/5'9\" and is wearing a size S Inspired by vintage looks, high fashion, and nightlife culture, the Manchester-based Glamorous brand, offers affordable trend-led fashion for all styles.",
    "item_name" : "Glamorous Button Down Shirt",
   "shopping_category_id" : "7",
    "unit_price" : "75.5"
  },
  { "enabled" : "1",
    "id" : "22",
    "img_uri" : "xanina-3987-644962-1-zoom.jpg",
    "item_description" : "Material: Cotton/polyester/spandex V neckline<br>Short sleeve Gartered back with belted waist<br>Creates the illusion for stunning and sexy curves<br>Soft stretch fabric",
    "item_name" : "Xanina Berna 2 Dress",
   "shopping_category_id" : "7",
    "unit_price" : "58"
  },
  { "enabled" : "1",
    "id" : "23",
    "img_uri" : "the-fille-9029-969842-1-zoom.jpg",
    "item_description" : "80% nylon 20% spandex<br>providing comfort and confidence<br>Adjustable goldtone back closure<br>Good support lets you be your sexy self",
    "item_name" : "THE FILLE 23005-600 Bikini Set",
   "shopping_category_id" : "7",
    "unit_price" : "59"
  },
  { "enabled" : "1",
    "id" : "24",
    "img_uri" : "love-my-clothes-0090-230842-1-zoom.jpg",
    "item_description" : "Cowl Neckline<br>Material: Satin<br>Pleated Middle Neckline<br>Extended Sleeves<br>Handwash",
    "item_name" : "Love My Clothes Cowl Neck Blouse",
    "shopping_category_id" : "7",
    "unit_price" : "34"
  },
  { "enabled" : "1",
    "id" : "25",
    "img_uri" : "rock-religion-0945-227591-1-zoom.jpg",
    "item_description" : "Aztec embellished top with ladder details at the back.<br>Fits true to size<br>take your normal size.<br>Refer to size guide.",
    "item_name" : "Rock And Religion Racerback Embellished Vest Top",
    "shopping_category_id" : "7",
    "unit_price" : "82.2"
  },
  { "enabled" : "1",
    "id" : "26",
    "img_uri" : "love-my-clothes-7675-785052-2-zoom.jpg",
    "item_description" : "Cowl Neckline<br>Material: Satin<br>Pleated Middle Neckline<br>Extended Sleeves<br>Handwash",
    "item_name" : "Love My Clothes Printed Cowl Neck Blouse",
   "shopping_category_id" : "7",
    "unit_price" : "24"
  },
  { "enabled" : "1",
    "id" : "27",
    "img_uri" : "dead-lovers-4948-846591-1-zoom.jpg",
    "item_description" : "Long Ava dress with Shark prints and \"BITE ME!\" on the front.<br>This item runs larger, take one size smaller than normal.<br>Refer to size guide for fit.<br>",
    "item_name" : "Dead Lovers Sleeveless Maxi Dress",
   "shopping_category_id" : "7",
    "unit_price" : "77"
  },
  { "enabled" : "1",
    "id" : "28",
    "img_uri" : "weiying-4131-107962-1-zoom.jpg",
    "item_description" : "Round neck<br>Material: Cotton and Polyester Blend<br>Long Sleeves<br>Printed design<br>Comfortable to wear<br>Casual and perfect for everyday use<br>Handwash or gentle machine wash, Do not bleach",
    "item_name" : "Weiying 1856 Long Sleeve Shirt",
    "shopping_category_id" : "7",
    "unit_price" : "17"
  },
  { "enabled" : "1",
    "id" : "29",
    "img_uri" : "ouliud-9227-679162-1-zoom.jpg",
    "item_description" : "Materials:Sequin yarn.<br>Long-sleeved sweater hollow.<br>Model's Body Measurement - Height:175cm, Shoulder/Breast/Waist/Hips:38cm/87cm/61cm/90cm.<br>Size of model's garment is M.",
    "item_name" : "OULIUD40811 Long-sleeved Sweater Hollow",
  "shopping_category_id" : "7",
    "unit_price" : "69"
  },
  { "enabled" : "1",
    "id" : "30",
    "img_uri" : "kipling-9333-222842-1-zoom.jpg",
    "item_description" : "Made of waterproof Nylon material best for rainy season<br>Good zip closure for safe guarding valuables<br>Interior zip pocket and multiple exterior pockets<br>Perky colorful design to liven up every mood",
    "item_name" : "Kipling Seoul Large Backpack",
    "shopping_category_id" : "7",
    "unit_price" : "11"
  },
  { "enabled" : "1",
    "id" : "31",
    "img_uri" : "41oer8upAiL.jpg",
    "item_description" : "Myanmar Burma Shwedagon Pagoda Asia<br>Hand sculptured<br>High Quality Polyresin 3D effect Handpainted magnets home design interior decoration modern art<br>Free Gift Warped",
    "item_name" : "Myanmar Burma Shwedagon Pagoda 3D fridge Refrigerator Thai Magnet Hand Made ",
     "shopping_category_id" : "9",
    "unit_price" : "49"
  },
  { "enabled" : "1",
    "id" : "32",
    "img_uri" : "71qeVO9W19L._SL1500__.jpg",
    "item_description" : "Burma Souvenir Spoon<br>It is approx. 5\"",
    "item_name" : "Burma Souvenir Spoon",
     "shopping_category_id" : "9",
    "unit_price" : "49"
  },
  { "enabled" : "1",
    "id" : "33",
    "img_uri" : "51tOoq6PbNL.jpg",
    "item_description" : "3D High Quality Firdge Magnet<br>Made from Resin,100% Handmade Product",
    "item_name" : "Souvenir Great Temple Mandalay Myanmar Burma High Quality 3d Fridge Manget Free Shipping",
      "shopping_category_id" : "9",
    "unit_price" : "49"
  },
  { "enabled" : "1",
    "id" : "34",
    "img_uri" : "61SZqvIFM2L._SL1001__.jpg",
    "item_description" : "100% new, handmade splendid wooden box from Myanmar<br>Diameter of 3.5 inches and weight 100 gram.<br>Black coating with Golden Burmese Art on front cover<br>Perfect for your living room, bedroom or anywhere you like., beauty item to be a truly stunning gift<br>Part of this selling income will be donated to The Thai Red Cross Society",
    "item_name" : "Handmade Elegant Gold Wood Box Storage Pocket",
      "shopping_category_id" : "9",
    "unit_price" : "39"
  },
  { "enabled" : "1",
    "id" : "35",
    "img_uri" : "61KFMcGkWrL._SL1001__.jpg",
    "item_description" : "100% new, handmade beautiful saucer set with box from Myanmar<br>Six saucers - diameter = 3.5 inches and total weight = 200 gram<br>Black coating with red elephant sketched on top<br>Perfect decorative items, beauty item to be a truly stunning gift<br>Part of this selling income will be donated to The Thai Red Cross Society",
    "item_name" : "Handmade Wooden Saucer Set with Box - Red Elephant",
      "shopping_category_id" : "9",
    "unit_price" : "39"
  },
  { "enabled" : "1",
    "id" : "36",
    "img_uri" : "71Er5AY778L._SL1001__.jpg",
    "item_description" : "100% new, handmade splendid saucer set and box from Myanmar<br>6 Saucer with diameter of 3.5 inches and weight 200 gram.<br>Black coating with Burmese art presented on top<br>Perfect decorative items, beauty item to be a truly stunning gift<br>Part of this selling income will be donated to The Thai Red Cross Society",
    "item_name" : "Handmade Wooden Saucer Set with Box - Red Flower",
      "shopping_category_id" : "9",
    "unit_price" : "39"
  },
  { "enabled" : "1",
    "id" : "37",
    "img_uri" : "71kdz3i2jsL._SL1001__.jpg",
    "item_description" : "100% new, handmade saucer set with box from Myanmar<br>Six saucers - diameter = 4.5 inches and total weight = 280 gram.<br>Black coating with elephant sketched on top<br>Perfect decorative items, beauty item to be a truly stunning gift<br>Part of this selling income will be donated to The Thai Red Cross Society",
    "item_name" : "Handmade Wooden Saucer Set with Box - Elephant - Big Size",
     "shopping_category_id" : "6",
    "unit_price" : "39"
  },
  { "enabled" : "1",
    "id" : "38",
    "img_uri" : "41aAC8kFFlL._SY450__.jpg",
    "item_description" : "5x6cm style shot glass<br>Measures 2.25\" tall and 1.8\" in diameter<br>Souvenir from Myanmar<br>Very rare and hard to find item<br>May have manufacturer's © logo imprinted on the side of glass.",
    "item_name" : "Myanmar (Burma) Flag Shot Glass",
      "shopping_category_id" : "9",
    "unit_price" : "29"
  },
  { "enabled" : "1",
    "id" : "39",
    "img_uri" : "519J6IVnCHL._SL1350__.jpg",
    "item_description" : "Makes a great gift!<br>Ceramic, 1.8 oz. shot glass<br>Dishwasher safe, but hand-washing is recommend.",
    "item_name" : "Mashed Mugs I Love Burma Ceramic Shot Glass",
      "shopping_category_id" : "9",
    "unit_price" : "29"
  },
  { "enabled" : "1",
    "id" : "40",
    "img_uri" : "51LtniXYBCL.jpg",
    "item_description" : "PHOTO JIGSAW PUZZLE... This Photo Puzzle features a cropped image of Kalaga tapestry, Mandalay, Myanmar (Burma), Asia chosen by Robert Harding. Estimated image size 356x254mm.<br>10x14 Photo Puzzle with 252 pieces. Packed in black cardboard box of dimensions 5 5/8 x 7 5/8 x 1 1/5. Puzzle image 5x7 affixed to box top. Puzzle pieces printed on RA4 paper at 300 dpi<br>Image Description... Kalaga tapestry, Mandalay, Myanmar (Burma), Asia Kalaga tapestry, Mandalay, Myanmar (Burma), Asia.<br>For any queries regarding this image please contact Robert Harding quoting Reference 3651163<br>Image supplied and selected by Robert Harding. (c) James Strachan",
    "item_name" : "Photo Jigsaw Puzzle of Kalaga tapestry, Mandalay, Myanmar (Burma)",
     "shopping_category_id" : "9",
    "unit_price" : "25"
  },
  { "enabled" : "1",
    "id" : "41",
    "img_uri" : "T2eC16RHJGMFFpcQV,r(BR)nTOvjLg~~60_57.JPG",
    "item_description" : "Burmese Golden Harp, Myanmar Handicrafts<br>These traditional Burmese Harps come in the box as seen in the picture.<br>It is perfect for gifts and for decorations that give the essence of the Burmese culture and traditional musical instruments. <br>Approximate Measurements<br>Diagonal Length: 5''<br>The length at the bottom: 4''<br>The width of the body of the harp: 1''<br>Measurements of the box: 5'' x 5.5''",
    "item_name" : "Burmese Golden Harp for Decorations and Souvenir, Myanmar Handicrafts",
       "shopping_category_id" : "9",
    "unit_price" : "25"
  },
  { "enabled" : "1",
    "id" : "42",
    "img_uri" : "T2eC16N,!zQE9s3srYizBRtB2k,s2!~~60_12.JPG",
    "item_description" : "Very beautiful sand painting of Bodhisattva from Bagan Myanmar(Burma). In Buddhism, Bodhisattva is a being that compassionately refrains from entering nirvana in order to save others and is worshiped as a deity in Mahayana Buddhism. The Bodhisattva figures are famous for embodying compassion and other noble qualities. They take the \"Bodhisattva Vow\" to forsake their individual enlightenment in order to aid in the awakening (bodhi) of all beings. Dimensions of painted area: 14 inches wide X 31 inches high",
    "item_name" : " Bodhisattva Painting",
      "shopping_category_id" : "9",
    "unit_price" : "29"
  },
  { "enabled" : "1",
    "id" : "43",
    "img_uri" : "generic-1350-150642-1-zoom.jpg",
    "item_description" : "Cosmetics Bag<br>Material: Polyester<br>Best Travel Buddy for cosmetics<br>With 4 Spacious Zippered Compartment<br>Can Hold and store cosmetics, jewelry, and more.",
    "item_name" : "Roll-N-Go Cosmetic Bag",
      "shopping_category_id" : "10",
    "unit_price" : "120"
  },
  { "enabled" : "1",
    "id" : "44",
    "img_uri" : "penshoppe-1440-778712-1-zoom.jpg",
    "item_description" : "100% Cotton<br>Flat embroidered \"P\" logo<br>Flat visor",
    "item_name" : "PENSHOPPE Ladies' Basic Snapback Cap",
     "shopping_category_id" : "10",
    "unit_price" : "99"
  },
  { "enabled" : "1",
    "id" : "45",
    "img_uri" : "tnl-5152-133802-1-zoom.jpg",
    "item_description" : "Manual five-folds/five-segment umbrella<br>Canopy material: Pongee, aluminum, silver coated steel/stretcher, fiber ribs aluminum<br>Matte silver plated plastic handle with handle strap<br>Velcro type umbrella closure, wind proof capability<br>Compact sized, ideal for bags",
    "item_name" : "TNL Five-folds Umbrella Printed",
     "shopping_category_id" : "10",
    "unit_price" : "49"
  },
  { "enabled" : "1",
    "id" : "46",
    "img_uri" : "santa-barbara-polo-racquet-club-7900-815102-1-zoom.jpg",
    "item_description" : "Standard belt<br>Material: cow leather strap<br>Easy-to-open-mechanism to adjust strap length<br>Buckle closure<br>Looks good with any outfit",
    "item_name" : "Santa Barbara Polo & Racquet Club Ladies Genuine Leather Belt",
     "shopping_category_id" : "10",
    "unit_price" : "69"
  },
  { "enabled" : "1",
    "id" : "47",
    "img_uri" : "tnl-2767-463802-1-zoom.jpg",
    "item_description" : "Long Umbrella<br>Canopy material: Pongee<br>Full fiber ribs, never rust high grade plastic stretcher<br>Black Coated Steel Shaft<br>Wooden handle with built on open button.",
    "item_name" : "TNL Long Fiber Ribs Umbrella Stripes",
      "shopping_category_id" : "10",
    "unit_price" : "35"
  },
  { "enabled" : "1",
    "id" : "48",
    "img_uri" : "geneva-5617-740211-3-zoom.jpg",
    "item_description" : "Infinity scarf<br>Made of woven silk<br>Long rectangular tassel scarf<br>Fishnet style<br>Hand wash<br>Do not bleach<br>Perfect to warm up a cold day, or for sassy events.",
    "item_name" : "Geneva Infinity Scarf GA1123-3",
     "shopping_category_id" : "10",
    "unit_price" : "34"
  },
  { "enabled" : "1",
    "id" : "49",
    "img_uri" : "wagw-5617-717921-5-zoom.jpg",
    "item_description" : "Material: Leather<br>Floppy Bow<br>Length: 7.5\"",
    "item_name" : "WAGW Sugar Coated Floppy Bow Hat",
     "shopping_category_id" : "10",
    "unit_price" : "28.99"
  },
  { "enabled" : "1",
    "id" : "50",
    "img_uri" : "wagw-5617-274731-3-zoom.jpg",
    "item_description" : "Made of straw material<br>With a dotted bow design<br>Diameter: 7\"<br>Hand Wash Only<br>Can be use for casual attire.",
    "item_name" : "WAGW Straw Dotted Ribbon Boater Hat",
     "shopping_category_id" : "10",
    "unit_price" : "35"
  },
  { "enabled" : "1",
    "id" : "51",
    "img_uri" : "generic-0276-329232-1-zoom.jpg",
    "item_description" : "Ultrasonic cleaning tank<br>Removable tray for easy handling and rinsing<br>Small brush for cleaning oily corner easily<br>With on/ off switch on the front<br>Simply fill the tank with water and get dazzling results<br>Applicable to precious metals and gems, waterproof watches, CDs, dentures, and eyeglasses<br>Made of delicate & impact-resistant plastic housing<br>Powered by 4 *1.5V AA battery (not included)",
    "item_name" : "Ultrasonic Energy Wave Cleaner for Jewelry and Eye Glasses Cleaning",
       "shopping_category_id" : "10",
    "unit_price" : "39.99"
  },
  { "enabled" : "1",
    "id" : "52",
    "img_uri" : "hickok-0859-319632-1-zoom.jpg",
    "item_description" : "Suspender<br>Material: Elastic<br>Adjuster clip<br>Suspender clip",
    "item_name" : "Hickok Suspender",
      "shopping_category_id" : "10",
    "unit_price" : "19"
  },
  { "enabled" : "1",
    "id" : "53",
    "img_uri" : "jewelmine-3276-948752-1-zoom.jpg",
    "item_description" : "Cable Cuff Bangle<br>Material: Stainless Steel<br>Finish: Shinny<br>For women and men of all ages.",
    "item_name" : "Jewelmine Monaco Cable Cuff Bangle",
      "shopping_category_id" : "10",
    "unit_price" : "19"
  },
  { "enabled" : "1",
    "id" : "54",
    "img_uri" : "jewelmine-5087-919752-1-zoom.jpg",
    "item_description" : "Bracelet<br>Material: Stainless Steel<br>Style: Chain<br>Finish: High Polish<br>For men of all ages.",
    "item_name" : "Jewelmine Nevada Bracelet",
    "shopping_category_id" : "10",
    "unit_price" : "15.99"
  },
  { "enabled" : "1",
    "id" : "55",
    "img_uri" : "penshoppe-7268-928842-1-zoom.jpg",
    "item_description" : "100% Cotton Twill<br>Mesh back panels<br>Flat visor<br>Hi-density graphic printed front panel",
    "item_name" : "PENSHOPPE Men's London Snapback Cap",
      "shopping_category_id" : "10",
    "unit_price" : "12"
  },
  { "enabled" : "1",
    "id" : "56",
    "img_uri" : "jewelmine-3722-551852-1-zoom.jpg",
    "item_description" : "Bangle<br>Material: Natural Leather<br>Finish: High Polish<br>Men of all ages",
    "item_name" : "Jewelmine Canterbury Bangle",
      "shopping_category_id" : "10",
    "unit_price" : "18.29"
  },
  { "enabled" : "1",
    "id" : "57",
    "img_uri" : "hickok-8533-409632-2-zoom.jpg",
    "item_description" : "Wallet<br>Material: Genuine Leather<br>Bill compartment<br>I.D. window<br>Card slots",
    "item_name" : "Hickok Genuine Leather Cardholder with Bill-Fold",
      "shopping_category_id" : "10",
    "unit_price" : "19.5"
  }
]
}
